      "timestamp": "1619644719609",
      "timestamp": "1619644720505",
      "timestamp": "1619644721826",
      "timestamp": "1619644722726",
      "timestamp": "1619644723666",
      "timestamp": "1619644724885",
      "timestamp": "1619644725710",
      "timestamp": "1619644726561",
      "timestamp": "1619644727486",
      "timestamp": "1619644728896",
      "timestamp": "1619644729776",
      "timestamp": "1619644730904",
      "timestamp": "1619644731798",
      "timestamp": "1619644732952",
      "timestamp": "1619644733661",
      "timestamp": "1619644734916",
      "timestamp": "1619644735717",
      "timestamp": "1619644736640",
      "timestamp": "1619644737962",
      "timestamp": "1619644738649",
      "timestamp": "1619644739554",
      "timestamp": "1619644740838",
      "timestamp": "1619644741721",
      "timestamp": "1619644742659",
      "timestamp": "1619644743886",
      "timestamp": "1619644744667",
      "timestamp": "1619644745841",
      "timestamp": "1619644746782",
      "timestamp": "1619644747635",
      "timestamp": "1619644748911",
      "timestamp": "1619644749609",
      "timestamp": "1619644750661",
      "timestamp": "1619644751947",
      "timestamp": "1619644752841",
      "timestamp": "1619644753933",
      "timestamp": "1619644754744",
      "timestamp": "1619644755860",
      "timestamp": "1619644756671",
      "timestamp": "1619644757605",
      "timestamp": "1619644758821",
      "timestamp": "1619644760021",
      "timestamp": "1619644760646",
      "timestamp": "1619644761848",
      "timestamp": "1619644763030",
      "timestamp": "1619644764063",
